info face="Chicago" size=32 bold=0 italic=0 charset="" unicode=0 stretchH=100 smooth=1 aa=1 padding=0,0,0,0 spacing=0,0
common lineHeight=44 base=34 scaleW=512 scaleH=512 pages=1 packed=0
page id=0 file="font.png"
chars count=95
char id=32   x=0     y=0     width=0     height=0     xoffset=0     yoffset=34    xadvance=11     page=0  chnl=0 
char id=36   x=0     y=0     width=15     height=32     xoffset=3     yoffset=6    xadvance=19     page=0  chnl=0 
char id=124   x=15     y=0     width=5     height=32     xoffset=5     yoffset=6    xadvance=13     page=0  chnl=0 
char id=106   x=20     y=0     width=15     height=32     xoffset=0     yoffset=8    xadvance=16     page=0  chnl=0 
char id=125   x=35     y=0     width=10     height=31     xoffset=3     yoffset=7    xadvance=13     page=0  chnl=0 
char id=123   x=45     y=0     width=10     height=31     xoffset=3     yoffset=7    xadvance=13     page=0  chnl=0 
char id=93   x=55     y=0     width=10     height=31     xoffset=3     yoffset=6    xadvance=13     page=0  chnl=0 
char id=91   x=65     y=0     width=10     height=31     xoffset=2     yoffset=6    xadvance=13     page=0  chnl=0 
char id=41   x=75     y=0     width=10     height=31     xoffset=3     yoffset=6    xadvance=13     page=0  chnl=0 
char id=40   x=85     y=0     width=10     height=31     xoffset=2     yoffset=6    xadvance=13     page=0  chnl=0 
char id=92   x=95     y=0     width=14     height=29     xoffset=3     yoffset=6    xadvance=19     page=0  chnl=0 
char id=47   x=109     y=0     width=14     height=29     xoffset=3     yoffset=6    xadvance=19     page=0  chnl=0 
char id=121   x=123     y=0     width=18     height=29     xoffset=3     yoffset=14    xadvance=21     page=0  chnl=0 
char id=103   x=141     y=0     width=18     height=29     xoffset=3     yoffset=14    xadvance=21     page=0  chnl=0 
char id=81   x=159     y=0     width=18     height=29     xoffset=3     yoffset=9    xadvance=21     page=0  chnl=0 
char id=55   x=177     y=0     width=18     height=27     xoffset=3     yoffset=9    xadvance=21     page=0  chnl=0 
char id=105   x=195     y=0     width=7     height=27     xoffset=3     yoffset=8    xadvance=11     page=0  chnl=0 
char id=38   x=202     y=0     width=23     height=26     xoffset=3     yoffset=9    xadvance=27     page=0  chnl=0 
char id=37   x=225     y=0     width=26     height=26     xoffset=3     yoffset=9    xadvance=29     page=0  chnl=0 
char id=64   x=251     y=0     width=26     height=26     xoffset=3     yoffset=9    xadvance=29     page=0  chnl=0 
char id=63   x=277     y=0     width=18     height=26     xoffset=3     yoffset=9    xadvance=21     page=0  chnl=0 
char id=33   x=295     y=0     width=7     height=26     xoffset=5     yoffset=9    xadvance=16     page=0  chnl=0 
char id=48   x=302     y=0     width=18     height=26     xoffset=3     yoffset=9    xadvance=21     page=0  chnl=0 
char id=57   x=320     y=0     width=18     height=26     xoffset=3     yoffset=9    xadvance=21     page=0  chnl=0 
char id=56   x=338     y=0     width=18     height=26     xoffset=3     yoffset=9    xadvance=21     page=0  chnl=0 
char id=54   x=356     y=0     width=18     height=26     xoffset=3     yoffset=9    xadvance=21     page=0  chnl=0 
char id=53   x=374     y=0     width=18     height=26     xoffset=3     yoffset=9    xadvance=21     page=0  chnl=0 
char id=52   x=392     y=0     width=21     height=26     xoffset=1     yoffset=9    xadvance=21     page=0  chnl=0 
char id=51   x=413     y=0     width=18     height=26     xoffset=3     yoffset=9    xadvance=21     page=0  chnl=0 
char id=50   x=431     y=0     width=18     height=26     xoffset=3     yoffset=9    xadvance=21     page=0  chnl=0 
char id=49   x=449     y=0     width=10     height=26     xoffset=5     yoffset=9    xadvance=21     page=0  chnl=0 
char id=116   x=459     y=0     width=13     height=26     xoffset=2     yoffset=10    xadvance=16     page=0  chnl=0 
char id=113   x=472     y=0     width=18     height=26     xoffset=3     yoffset=14    xadvance=21     page=0  chnl=0 
char id=112   x=490     y=0     width=18     height=26     xoffset=3     yoffset=14    xadvance=21     page=0  chnl=0 
char id=108   x=0     y=32     width=7     height=26     xoffset=3     yoffset=9    xadvance=11     page=0  chnl=0 
char id=107   x=7     y=32     width=19     height=26     xoffset=3     yoffset=9    xadvance=21     page=0  chnl=0 
char id=104   x=26     y=32     width=18     height=26     xoffset=3     yoffset=9    xadvance=21     page=0  chnl=0 
char id=102   x=44     y=32     width=15     height=26     xoffset=2     yoffset=9    xadvance=16     page=0  chnl=0 
char id=100   x=59     y=32     width=18     height=26     xoffset=3     yoffset=9    xadvance=21     page=0  chnl=0 
char id=98   x=77     y=32     width=18     height=26     xoffset=3     yoffset=9    xadvance=21     page=0  chnl=0 
char id=90   x=95     y=32     width=18     height=26     xoffset=3     yoffset=9    xadvance=21     page=0  chnl=0 
char id=89   x=113     y=32     width=17     height=26     xoffset=3     yoffset=9    xadvance=21     page=0  chnl=0 
char id=88   x=130     y=32     width=18     height=26     xoffset=3     yoffset=9    xadvance=21     page=0  chnl=0 
char id=87   x=148     y=32     width=29     height=26     xoffset=3     yoffset=9    xadvance=32     page=0  chnl=0 
char id=86   x=177     y=32     width=18     height=26     xoffset=3     yoffset=9    xadvance=21     page=0  chnl=0 
char id=85   x=195     y=32     width=18     height=26     xoffset=3     yoffset=9    xadvance=21     page=0  chnl=0 
char id=84   x=213     y=32     width=17     height=26     xoffset=0     yoffset=9    xadvance=16     page=0  chnl=0 
char id=83   x=230     y=32     width=15     height=26     xoffset=3     yoffset=9    xadvance=19     page=0  chnl=0 
char id=82   x=245     y=32     width=18     height=26     xoffset=3     yoffset=9    xadvance=21     page=0  chnl=0 
char id=80   x=263     y=32     width=18     height=26     xoffset=3     yoffset=9    xadvance=21     page=0  chnl=0 
char id=79   x=281     y=32     width=18     height=26     xoffset=3     yoffset=9    xadvance=21     page=0  chnl=0 
char id=78   x=299     y=32     width=21     height=26     xoffset=3     yoffset=9    xadvance=24     page=0  chnl=0 
char id=77   x=320     y=32     width=29     height=26     xoffset=3     yoffset=9    xadvance=32     page=0  chnl=0 
char id=76   x=349     y=32     width=15     height=26     xoffset=3     yoffset=9    xadvance=19     page=0  chnl=0 
char id=75   x=364     y=32     width=19     height=26     xoffset=3     yoffset=9    xadvance=24     page=0  chnl=0 
char id=74   x=383     y=32     width=18     height=26     xoffset=0     yoffset=9    xadvance=19     page=0  chnl=0 
char id=73   x=401     y=32     width=7     height=26     xoffset=5     yoffset=9    xadvance=16     page=0  chnl=0 
char id=72   x=408     y=32     width=18     height=26     xoffset=3     yoffset=9    xadvance=21     page=0  chnl=0 
char id=71   x=426     y=32     width=18     height=26     xoffset=3     yoffset=9    xadvance=21     page=0  chnl=0 
char id=70   x=444     y=32     width=15     height=26     xoffset=3     yoffset=9    xadvance=19     page=0  chnl=0 
char id=69   x=459     y=32     width=15     height=26     xoffset=3     yoffset=9    xadvance=19     page=0  chnl=0 
char id=68   x=474     y=32     width=18     height=26     xoffset=3     yoffset=9    xadvance=21     page=0  chnl=0 
char id=67   x=492     y=32     width=18     height=26     xoffset=3     yoffset=9    xadvance=21     page=0  chnl=0 
char id=66   x=0     y=58     width=18     height=26     xoffset=3     yoffset=9    xadvance=21     page=0  chnl=0 
char id=65   x=18     y=58     width=18     height=26     xoffset=3     yoffset=9    xadvance=21     page=0  chnl=0 
char id=59   x=36     y=58     width=7     height=25     xoffset=3     yoffset=15    xadvance=11     page=0  chnl=0 
char id=35   x=43     y=58     width=24     height=23     xoffset=2     yoffset=9    xadvance=27     page=0  chnl=0 
char id=122   x=67     y=58     width=18     height=21     xoffset=3     yoffset=14    xadvance=21     page=0  chnl=0 
char id=120   x=85     y=58     width=18     height=21     xoffset=3     yoffset=14    xadvance=21     page=0  chnl=0 
char id=119   x=103     y=58     width=29     height=21     xoffset=3     yoffset=14    xadvance=32     page=0  chnl=0 
char id=118   x=132     y=58     width=18     height=21     xoffset=3     yoffset=14    xadvance=21     page=0  chnl=0 
char id=117   x=150     y=58     width=18     height=21     xoffset=3     yoffset=14    xadvance=21     page=0  chnl=0 
char id=115   x=168     y=58     width=15     height=21     xoffset=3     yoffset=14    xadvance=19     page=0  chnl=0 
char id=114   x=183     y=58     width=15     height=21     xoffset=3     yoffset=14    xadvance=16     page=0  chnl=0 
char id=111   x=198     y=58     width=18     height=21     xoffset=3     yoffset=14    xadvance=21     page=0  chnl=0 
char id=110   x=216     y=58     width=18     height=21     xoffset=3     yoffset=14    xadvance=21     page=0  chnl=0 
char id=109   x=234     y=58     width=29     height=21     xoffset=3     yoffset=14    xadvance=32     page=0  chnl=0 
char id=101   x=263     y=58     width=18     height=21     xoffset=3     yoffset=14    xadvance=21     page=0  chnl=0 
char id=99   x=281     y=58     width=15     height=21     xoffset=3     yoffset=14    xadvance=19     page=0  chnl=0 
char id=97   x=296     y=58     width=18     height=21     xoffset=3     yoffset=14    xadvance=21     page=0  chnl=0 
char id=127   x=314     y=58     width=16     height=20     xoffset=1     yoffset=15    xadvance=16     page=0  chnl=0 
char id=62   x=330     y=58     width=16     height=20     xoffset=1     yoffset=12    xadvance=16     page=0  chnl=0 
char id=60   x=346     y=58     width=16     height=20     xoffset=0     yoffset=12    xadvance=16     page=0  chnl=0 
char id=58   x=362     y=58     width=7     height=20     xoffset=3     yoffset=15    xadvance=11     page=0  chnl=0 
char id=42   x=369     y=58     width=16     height=17     xoffset=3     yoffset=10    xadvance=19     page=0  chnl=0 
char id=43   x=385     y=58     width=15     height=15     xoffset=3     yoffset=17    xadvance=19     page=0  chnl=0 
char id=44   x=400     y=58     width=7     height=12     xoffset=3     yoffset=28    xadvance=11     page=0  chnl=0 
char id=61   x=407     y=58     width=18     height=11     xoffset=3     yoffset=19    xadvance=21     page=0  chnl=0 
char id=39   x=425     y=58     width=5     height=10     xoffset=3     yoffset=9    xadvance=8     page=0  chnl=0 
char id=34   x=430     y=58     width=10     height=10     xoffset=6     yoffset=9    xadvance=19     page=0  chnl=0 
char id=94   x=440     y=58     width=17     height=9     xoffset=3     yoffset=10    xadvance=21     page=0  chnl=0 
char id=126   x=457     y=58     width=17     height=8     xoffset=3     yoffset=14    xadvance=21     page=0  chnl=0 
char id=46   x=474     y=58     width=7     height=7     xoffset=3     yoffset=28    xadvance=11     page=0  chnl=0 
char id=96   x=481     y=58     width=6     height=7     xoffset=5     yoffset=7    xadvance=16     page=0  chnl=0 
char id=95   x=487     y=58     width=23     height=5     xoffset=0     yoffset=33    xadvance=21     page=0  chnl=0 
char id=45   x=0     y=84     width=15     height=5     xoffset=3     yoffset=22    xadvance=19     page=0  chnl=0 
